-------------------------------------------------------------------------------
Test set: com.lorenacadena.rest.RestEmpleadosApplicationTests
-------------------------------------------------------------------------------
Tests run: 1, Failures: 0, Errors: 0, Skipped: 0, Time elapsed: 0.85 s - in com.lorenacadena.rest.RestEmpleadosApplicationTests
